{
  "href": "https://api.spotify.com/v1/users/freeride00/playlists?offset=0&limit=10",
  "items": [
    {
      "collaborative": false,
      "external_urls": {
        "spotify": "https://open.spotify.com/playlist/1c94n82rOLOHYOminUI1FB"
      },
      "href": "https://api.spotify.com/v1/playlists/1c94n82rOLOHYOminUI1FB",
      "id": "1c94n82rOLOHYOminUI1FB",
      "images": [
        {
          "height": 640,
          "url": "https://mosaic.scdn.co/640/10e359ca5c32b609274c8fcde447fcd9c4cb31fe37f930dc0cd8b2ac1bb01f7661190d0ae8e751ea4f84b4eeaf35021813bbc6ad50b90016fa38c82ee640b49e5b81f71e8b288b4e7e3042e514f2b215",
          "width": 640
        },
        {
          "height": 300,
          "url": "https://mosaic.scdn.co/300/10e359ca5c32b609274c8fcde447fcd9c4cb31fe37f930dc0cd8b2ac1bb01f7661190d0ae8e751ea4f84b4eeaf35021813bbc6ad50b90016fa38c82ee640b49e5b81f71e8b288b4e7e3042e514f2b215",
          "width": 300
        },
        {
          "height": 60,
          "url": "https://mosaic.scdn.co/60/10e359ca5c32b609274c8fcde447fcd9c4cb31fe37f930dc0cd8b2ac1bb01f7661190d0ae8e751ea4f84b4eeaf35021813bbc6ad50b90016fa38c82ee640b49e5b81f71e8b288b4e7e3042e514f2b215",
          "width": 60
        }
      ],
      "name": "Lundgren Design",
      "owner": {
        "display_name": "Tobias Lundgren",
        "external_urls": {
          "spotify": "https://open.spotify.com/user/freeride00"
        },
        "href": "https://api.spotify.com/v1/users/freeride00",
        "id": "freeride00",
        "type": "user",
        "uri": "spotify:user:freeride00"
      },
      "primary_color": null,
      "public": true,
      "snapshot_id": "Mzg0LDhkNWRiNmVlYWE2NWZjYzRlMjljOTcyNjc3ZjBhM2RlMzE1ZDU3YmQ=",
      "tracks": {
        "href": "https://api.spotify.com/v1/playlists/1c94n82rOLOHYOminUI1FB/tracks",
        "total": 257
      },
      "type": "playlist",
      "uri": "spotify:user:freeride00:playlist:1c94n82rOLOHYOminUI1FB"
    },
    {
      "collaborative": false,
      "external_urls": {
        "spotify": "https://open.spotify.com/playlist/1Iats8sT92fruNNyjZlb6S"
      },
      "href": "https://api.spotify.com/v1/playlists/1Iats8sT92fruNNyjZlb6S",
      "id": "1Iats8sT92fruNNyjZlb6S",
      "images": [
        {
          "height": 640,
          "url": "https://mosaic.scdn.co/640/0d1fcec825b0871df9f6b5e000f857f3b5121cb12472e603b8eb9dd0194358169d5b6d8de7a39a26275a839ac39dc15cf21fc86d72836789a814155ca8146e0cca59225b2bf43360f7df371e2e985c1b",
          "width": 640
        },
        {
          "height": 300,
          "url": "https://mosaic.scdn.co/300/0d1fcec825b0871df9f6b5e000f857f3b5121cb12472e603b8eb9dd0194358169d5b6d8de7a39a26275a839ac39dc15cf21fc86d72836789a814155ca8146e0cca59225b2bf43360f7df371e2e985c1b",
          "width": 300
        },
        {
          "height": 60,
          "url": "https://mosaic.scdn.co/60/0d1fcec825b0871df9f6b5e000f857f3b5121cb12472e603b8eb9dd0194358169d5b6d8de7a39a26275a839ac39dc15cf21fc86d72836789a814155ca8146e0cca59225b2bf43360f7df371e2e985c1b",
          "width": 60
        }
      ],
      "name": "Hardcore code",
      "owner": {
        "display_name": "Tobias Lundgren",
        "external_urls": {
          "spotify": "https://open.spotify.com/user/freeride00"
        },
        "href": "https://api.spotify.com/v1/users/freeride00",
        "id": "freeride00",
        "type": "user",
        "uri": "spotify:user:freeride00"
      },
      "primary_color": null,
      "public": true,
      "snapshot_id": "MjUsNmYwZTJkOTFhNDIwNGU4OWJiMGYwNGEzNGE4NWVmODI5MTIwZDU5Mg==",
      "tracks": {
        "href": "https://api.spotify.com/v1/playlists/1Iats8sT92fruNNyjZlb6S/tracks",
        "total": 21
      },
      "type": "playlist",
      "uri": "spotify:user:freeride00:playlist:1Iats8sT92fruNNyjZlb6S"
    },
    {
      "collaborative": false,
      "external_urls": {
        "spotify": "https://open.spotify.com/playlist/6ymXu8mNK0XqJDk05SmotY"
      },
      "href": "https://api.spotify.com/v1/playlists/6ymXu8mNK0XqJDk05SmotY",
      "id": "6ymXu8mNK0XqJDk05SmotY",
      "images": [
        {
          "height": 640,
          "url": "https://mosaic.scdn.co/640/1de72298b60c61e681a74e285cc65d6809b325b41ed98e7582626b052ecfc586062cf508bd893877695dfa63a47c7db21c0124f1d598d54058063b9476ac2e447bce2f0198c7fb4a2068e3c82327a2f6",
          "width": 640
        },
        {
          "height": 300,
          "url": "https://mosaic.scdn.co/300/1de72298b60c61e681a74e285cc65d6809b325b41ed98e7582626b052ecfc586062cf508bd893877695dfa63a47c7db21c0124f1d598d54058063b9476ac2e447bce2f0198c7fb4a2068e3c82327a2f6",
          "width": 300
        },
        {
          "height": 60,
          "url": "https://mosaic.scdn.co/60/1de72298b60c61e681a74e285cc65d6809b325b41ed98e7582626b052ecfc586062cf508bd893877695dfa63a47c7db21c0124f1d598d54058063b9476ac2e447bce2f0198c7fb4a2068e3c82327a2f6",
          "width": 60
        }
      ],
      "name": "Top",
      "owner": {
        "display_name": "Tobias Lundgren",
        "external_urls": {
          "spotify": "https://open.spotify.com/user/freeride00"
        },
        "href": "https://api.spotify.com/v1/users/freeride00",
        "id": "freeride00",
        "type": "user",
        "uri": "spotify:user:freeride00"
      },
      "primary_color": null,
      "public": true,
      "snapshot_id": "MjAzLDkyMGI5NzY5OTgwYzYzM2Q3NTk0Mjc3ZGZlODA3OGNhNWNjZTY2MTM=",
      "tracks": {
        "href": "https://api.spotify.com/v1/playlists/6ymXu8mNK0XqJDk05SmotY/tracks",
        "total": 201
      },
      "type": "playlist",
      "uri": "spotify:user:freeride00:playlist:6ymXu8mNK0XqJDk05SmotY"
    },
    {
      "collaborative": false,
      "external_urls": {
        "spotify": "https://open.spotify.com/playlist/1hrn3I2dwmPHSYrN0jAMlN"
      },
      "href": "https://api.spotify.com/v1/playlists/1hrn3I2dwmPHSYrN0jAMlN",
      "id": "1hrn3I2dwmPHSYrN0jAMlN",
      "images": [
        {
          "height": 640,
          "url": "https://mosaic.scdn.co/640/05cd5333fbc51518f04952b0cca2bc2d9fe6286a36b65f5c328bd9df31ae69b81938c3ea58e3730e934905f7b5b42166fc803e68d946f1f144cc746ef03c0fec324b71206f52b55659be7906c7b615a5",
          "width": 640
        },
        {
          "height": 300,
          "url": "https://mosaic.scdn.co/300/05cd5333fbc51518f04952b0cca2bc2d9fe6286a36b65f5c328bd9df31ae69b81938c3ea58e3730e934905f7b5b42166fc803e68d946f1f144cc746ef03c0fec324b71206f52b55659be7906c7b615a5",
          "width": 300
        },
        {
          "height": 60,
          "url": "https://mosaic.scdn.co/60/05cd5333fbc51518f04952b0cca2bc2d9fe6286a36b65f5c328bd9df31ae69b81938c3ea58e3730e934905f7b5b42166fc803e68d946f1f144cc746ef03c0fec324b71206f52b55659be7906c7b615a5",
          "width": 60
        }
      ],
      "name": "Study 18",
      "owner": {
        "display_name": "Tobias Lundgren",
        "external_urls": {
          "spotify": "https://open.spotify.com/user/freeride00"
        },
        "href": "https://api.spotify.com/v1/users/freeride00",
        "id": "freeride00",
        "type": "user",
        "uri": "spotify:user:freeride00"
      },
      "primary_color": null,
      "public": true,
      "snapshot_id": "MjMsZmY4NDUwMWJlYzE3Njc4NmQ5NjE2ZWIwMzdhMzY2MDE5NGU1ZGRkMA==",
      "tracks": {
        "href": "https://api.spotify.com/v1/playlists/1hrn3I2dwmPHSYrN0jAMlN/tracks",
        "total": 22
      },
      "type": "playlist",
      "uri": "spotify:user:freeride00:playlist:1hrn3I2dwmPHSYrN0jAMlN"
    },
    {
      "collaborative": false,
      "external_urls": {
        "spotify": "https://open.spotify.com/playlist/4d6vEwDIZnZOvMTgVON1wW"
      },
      "href": "https://api.spotify.com/v1/playlists/4d6vEwDIZnZOvMTgVON1wW",
      "id": "4d6vEwDIZnZOvMTgVON1wW",
      "images": [
        {
          "height": 640,
          "url": "https://mosaic.scdn.co/640/1ef21489cea438ad3b1ba180c62c215ada2dd3b73011c3ef1b4415c8ccbb31bdd86490574127ecea6052bf0f1c53b300bf146ff5225579f29bd980c3d1ebffe0c5daa3811db90ec5aea0840222c3b481",
          "width": 640
        },
        {
          "height": 300,
          "url": "https://mosaic.scdn.co/300/1ef21489cea438ad3b1ba180c62c215ada2dd3b73011c3ef1b4415c8ccbb31bdd86490574127ecea6052bf0f1c53b300bf146ff5225579f29bd980c3d1ebffe0c5daa3811db90ec5aea0840222c3b481",
          "width": 300
        },
        {
          "height": 60,
          "url": "https://mosaic.scdn.co/60/1ef21489cea438ad3b1ba180c62c215ada2dd3b73011c3ef1b4415c8ccbb31bdd86490574127ecea6052bf0f1c53b300bf146ff5225579f29bd980c3d1ebffe0c5daa3811db90ec5aea0840222c3b481",
          "width": 60
        }
      ],
      "name": "2018",
      "owner": {
        "display_name": "Tobias Lundgren",
        "external_urls": {
          "spotify": "https://open.spotify.com/user/freeride00"
        },
        "href": "https://api.spotify.com/v1/users/freeride00",
        "id": "freeride00",
        "type": "user",
        "uri": "spotify:user:freeride00"
      },
      "primary_color": null,
      "public": true,
      "snapshot_id": "MTI1LDE0NzhkODkxOGEzZGM1Mjc2YjAyZGM5NTg3NDJlZmZhMmQxNGUyMDY=",
      "tracks": {
        "href": "https://api.spotify.com/v1/playlists/4d6vEwDIZnZOvMTgVON1wW/tracks",
        "total": 115
      },
      "type": "playlist",
      "uri": "spotify:user:freeride00:playlist:4d6vEwDIZnZOvMTgVON1wW"
    },
    {
      "collaborative": false,
      "external_urls": {
        "spotify": "https://open.spotify.com/playlist/2iMo4Ni0knL5AZLgkyxI7m"
      },
      "href": "https://api.spotify.com/v1/playlists/2iMo4Ni0knL5AZLgkyxI7m",
      "id": "2iMo4Ni0knL5AZLgkyxI7m",
      "images": [
        {
          "height": 640,
          "url": "https://i.scdn.co/image/5a52aea37b2c91c109f33e44587e2b646299cbc7",
          "width": 640
        }
      ],
      "name": "Feelgood",
      "owner": {
        "display_name": "Tobias Lundgren",
        "external_urls": {
          "spotify": "https://open.spotify.com/user/freeride00"
        },
        "href": "https://api.spotify.com/v1/users/freeride00",
        "id": "freeride00",
        "type": "user",
        "uri": "spotify:user:freeride00"
      },
      "primary_color": null,
      "public": true,
      "snapshot_id": "NSwyODRmMzlhMTQ3ZDkwYzI1YTllMDE2NTU4OGJkNzhkMTA4ODBiMDc5",
      "tracks": {
        "href": "https://api.spotify.com/v1/playlists/2iMo4Ni0knL5AZLgkyxI7m/tracks",
        "total": 3
      },
      "type": "playlist",
      "uri": "spotify:user:freeride00:playlist:2iMo4Ni0knL5AZLgkyxI7m"
    },
    {
      "collaborative": false,
      "external_urls": {
        "spotify": "https://open.spotify.com/playlist/3wlH2BzU07XvDyvX03hpaf"
      },
      "href": "https://api.spotify.com/v1/playlists/3wlH2BzU07XvDyvX03hpaf",
      "id": "3wlH2BzU07XvDyvX03hpaf",
      "images": [
        {
          "height": 640,
          "url": "https://mosaic.scdn.co/640/063cc795acad294c97dc660b662e8977b3a557372690e322dda50db74e392232f0c26d95aad187775b4a362fb5bf899dbe051ce75b5afa19e2a292e3b4ced592d4776a9d6b2ec6ba00debb3e6c9910fd",
          "width": 640
        },
        {
          "height": 300,
          "url": "https://mosaic.scdn.co/300/063cc795acad294c97dc660b662e8977b3a557372690e322dda50db74e392232f0c26d95aad187775b4a362fb5bf899dbe051ce75b5afa19e2a292e3b4ced592d4776a9d6b2ec6ba00debb3e6c9910fd",
          "width": 300
        },
        {
          "height": 60,
          "url": "https://mosaic.scdn.co/60/063cc795acad294c97dc660b662e8977b3a557372690e322dda50db74e392232f0c26d95aad187775b4a362fb5bf899dbe051ce75b5afa19e2a292e3b4ced592d4776a9d6b2ec6ba00debb3e6c9910fd",
          "width": 60
        }
      ],
      "name": "Skidmusik",
      "owner": {
        "display_name": "Tobias Lundgren",
        "external_urls": {
          "spotify": "https://open.spotify.com/user/freeride00"
        },
        "href": "https://api.spotify.com/v1/users/freeride00",
        "id": "freeride00",
        "type": "user",
        "uri": "spotify:user:freeride00"
      },
      "primary_color": null,
      "public": true,
      "snapshot_id": "MTc5LDBjYmE1ZmNlMzZlYjE5MTgwZDI1ODNhNGJmYWFlNWRkNGJhMzlkMTE=",
      "tracks": {
        "href": "https://api.spotify.com/v1/playlists/3wlH2BzU07XvDyvX03hpaf/tracks",
        "total": 164
      },
      "type": "playlist",
      "uri": "spotify:user:freeride00:playlist:3wlH2BzU07XvDyvX03hpaf"
    },
    {
      "collaborative": false,
      "external_urls": {
        "spotify": "https://open.spotify.com/playlist/1tlWNjr9nVaGJJ33okrIYY"
      },
      "href": "https://api.spotify.com/v1/playlists/1tlWNjr9nVaGJJ33okrIYY",
      "id": "1tlWNjr9nVaGJJ33okrIYY",
      "images": [
        {
          "height": 640,
          "url": "https://mosaic.scdn.co/640/6d9ed4f50c44ec05eb37100ec9012f7a7085baf3ba570ce944a17a33fe0772df6fa1995f7db4411dc65e40b63e70018b0db849641867d52bd95e76bfdb73bc62da8d4830e96fd36e17305e78d38cb3b8",
          "width": 640
        },
        {
          "height": 300,
          "url": "https://mosaic.scdn.co/300/6d9ed4f50c44ec05eb37100ec9012f7a7085baf3ba570ce944a17a33fe0772df6fa1995f7db4411dc65e40b63e70018b0db849641867d52bd95e76bfdb73bc62da8d4830e96fd36e17305e78d38cb3b8",
          "width": 300
        },
        {
          "height": 60,
          "url": "https://mosaic.scdn.co/60/6d9ed4f50c44ec05eb37100ec9012f7a7085baf3ba570ce944a17a33fe0772df6fa1995f7db4411dc65e40b63e70018b0db849641867d52bd95e76bfdb73bc62da8d4830e96fd36e17305e78d38cb3b8",
          "width": 60
        }
      ],
      "name": "2018 (2)",
      "owner": {
        "display_name": "Tobias Lundgren",
        "external_urls": {
          "spotify": "https://open.spotify.com/user/freeride00"
        },
        "href": "https://api.spotify.com/v1/users/freeride00",
        "id": "freeride00",
        "type": "user",
        "uri": "spotify:user:freeride00"
      },
      "primary_color": null,
      "public": true,
      "snapshot_id": "MTEsOTlkMTY2NGNmNWMxMmQwMjBlZjE4MzkyZWU5OTY5NjY3NzNhODQzNQ==",
      "tracks": {
        "href": "https://api.spotify.com/v1/playlists/1tlWNjr9nVaGJJ33okrIYY/tracks",
        "total": 73
      },
      "type": "playlist",
      "uri": "spotify:user:freeride00:playlist:1tlWNjr9nVaGJJ33okrIYY"
    },
    {
      "collaborative": false,
      "external_urls": {
        "spotify": "https://open.spotify.com/playlist/27igyhFpVH81J6KjXlVZS5"
      },
      "href": "https://api.spotify.com/v1/playlists/27igyhFpVH81J6KjXlVZS5",
      "id": "27igyhFpVH81J6KjXlVZS5",
      "images": [
        {
          "height": 640,
          "url": "https://mosaic.scdn.co/640/0c1f2a8c9f275eb136436f5481d15c1c9452a5ed84fc9571b8705bfd35d7ca1e1482474c408209da9c5d0ed04c5d5ca1fb3027cdc860698c89da4942f2945979a77234f36f99225eb277f5cc60501cd0",
          "width": 640
        },
        {
          "height": 300,
          "url": "https://mosaic.scdn.co/300/0c1f2a8c9f275eb136436f5481d15c1c9452a5ed84fc9571b8705bfd35d7ca1e1482474c408209da9c5d0ed04c5d5ca1fb3027cdc860698c89da4942f2945979a77234f36f99225eb277f5cc60501cd0",
          "width": 300
        },
        {
          "height": 60,
          "url": "https://mosaic.scdn.co/60/0c1f2a8c9f275eb136436f5481d15c1c9452a5ed84fc9571b8705bfd35d7ca1e1482474c408209da9c5d0ed04c5d5ca1fb3027cdc860698c89da4942f2945979a77234f36f99225eb277f5cc60501cd0",
          "width": 60
        }
      ],
      "name": "DOPE ⚰️",
      "owner": {
        "display_name": "Tobias Lundgren",
        "external_urls": {
          "spotify": "https://open.spotify.com/user/freeride00"
        },
        "href": "https://api.spotify.com/v1/users/freeride00",
        "id": "freeride00",
        "type": "user",
        "uri": "spotify:user:freeride00"
      },
      "primary_color": null,
      "public": true,
      "snapshot_id": "NDEsNmFiZjFjNmY4NjIwNjgxNDVlODY2ZjU3OGQwYjI0ZTc0YTFjN2FmYQ==",
      "tracks": {
        "href": "https://api.spotify.com/v1/playlists/27igyhFpVH81J6KjXlVZS5/tracks",
        "total": 35
      },
      "type": "playlist",
      "uri": "spotify:user:freeride00:playlist:27igyhFpVH81J6KjXlVZS5"
    },
    {
      "collaborative": false,
      "external_urls": {
        "spotify": "https://open.spotify.com/playlist/1TqhZvJjHci47cYSjTZMkt"
      },
      "href": "https://api.spotify.com/v1/playlists/1TqhZvJjHci47cYSjTZMkt",
      "id": "1TqhZvJjHci47cYSjTZMkt",
      "images": [
        {
          "height": 640,
          "url": "https://mosaic.scdn.co/640/3cdd47508a8137c1e3e86fd59479158269ffd5874e381522171ce3c1819d6721533cb08dab5dc9a264e62e03f46d0c0d3dc5381c04a0b6e813c38c8688b7bb773811fa4fabf36e4c49d306f01d27527c",
          "width": 640
        },
        {
          "height": 300,
          "url": "https://mosaic.scdn.co/300/3cdd47508a8137c1e3e86fd59479158269ffd5874e381522171ce3c1819d6721533cb08dab5dc9a264e62e03f46d0c0d3dc5381c04a0b6e813c38c8688b7bb773811fa4fabf36e4c49d306f01d27527c",
          "width": 300
        },
        {
          "height": 60,
          "url": "https://mosaic.scdn.co/60/3cdd47508a8137c1e3e86fd59479158269ffd5874e381522171ce3c1819d6721533cb08dab5dc9a264e62e03f46d0c0d3dc5381c04a0b6e813c38c8688b7bb773811fa4fabf36e4c49d306f01d27527c",
          "width": 60
        }
      ],
      "name": "2016",
      "owner": {
        "display_name": "Tobias Lundgren",
        "external_urls": {
          "spotify": "https://open.spotify.com/user/freeride00"
        },
        "href": "https://api.spotify.com/v1/users/freeride00",
        "id": "freeride00",
        "type": "user",
        "uri": "spotify:user:freeride00"
      },
      "primary_color": null,
      "public": true,
      "snapshot_id": "NDIsNmI2ODY3NjNmNjc1MmM5MTAzZDRiNDFjMWU3NTFjMzA0MDUyYjBhMA==",
      "tracks": {
        "href": "https://api.spotify.com/v1/playlists/1TqhZvJjHci47cYSjTZMkt/tracks",
        "total": 35
      },
      "type": "playlist",
      "uri": "spotify:user:freeride00:playlist:1TqhZvJjHci47cYSjTZMkt"
    }
  ],
  "limit": 10,
  "next": "https://api.spotify.com/v1/users/freeride00/playlists?offset=10&limit=10",
  "offset": 0,
  "previous": null,
  "total": 58
}
